{
  "items": [
    {
      "title": "Nokia 6",
      "image": "img/m1.png",
      "price": "599",
      "shortDescription": "5.5\" display"
    },
    {
      "title": "Nokia 6",
      "image": "img/m1.png",
      "price": "599",
      "shortDescription": "5.5\" display"
    },
    {
      "title": "Nokia 6",
      "image": "img/m1.png",
      "price": "599",
      "shortDescription": "5.5\" display"
    },
    {
      "title": "Nokia 6",
      "image": "img/m1.png",
      "price": "599",
      "shortDescription": "5.5\" display"
    },
    {
      "title": "Nokia 6",
      "image": "img/m1.png",
      "price": "599",
      "shortDescription": "5.5\" display"
    },
    {
      "title": "Nokia 6",
      "image": "img/m1.png",
      "price": "599",
      "shortDescription": "5.5\" display"
    },
    {
      "title": "Nokia 6",
      "image": "img/m1.png",
      "price": "599",
      "shortDescription": "5.5\" display"
    },
    {
      "title": "Nokia 6",
      "image": "img/m1.png",
      "price": "599",
      "shortDescription": "5.5\" display"
    },
    {
      "title": "Nokia 6",
      "image": "img/m1.png",
      "price": "599",
      "shortDescription": "5.5\" display"
    }
  ]
}