{
	"component": [
		"svg-cart",
		"svg-cart_header",
		"svg-close",
		"svg-commerce"
	],
	"items": [
		{
			"title": "Nokia 6",
			"image": "img/m1.png",
			"price": "599",
			"shortDescription": "5.5\" display"
		},
		{
			"title": "Nokia 6",
			"image": "img/m1.png",
			"price": "599",
			"shortDescription": "5.5\" display"
		},
		{
			"title": "Nokia 6",
			"image": "img/m1.png",
			"price": "599",
			"shortDescription": "5.5\" display"
		},
		{
			"title": "Nokia 6",
			"image": "img/m1.png",
			"price": "599",
			"shortDescription": "5.5\" display"
		},
		{
			"title": "Nokia 6",
			"image": "img/m1.png",
			"price": "599",
			"shortDescription": "5.5\" display"
		},
		{
			"title": "Nokia 6",
			"image": "img/m1.png",
			"price": "599",
			"shortDescription": "5.5\" display"
		},
		{
			"title": "Nokia 6",
			"image": "img/m1.png",
			"price": "599",
			"shortDescription": "5.5\" display"
		},
		{
			"title": "Nokia 6",
			"image": "img/m1.png",
			"price": "599",
			"shortDescription": "5.5\" display"
		},
		{
			"title": "Nokia 6",
			"image": "img/m1.png",
			"price": "599",
			"shortDescription": "5.5\" display"
		}
	],
	"main": {
		"charset": "utf-8",
		"robots": "robots",
		"keywords": "Your Keywords",
		"title": "Admin",
		"description": "Your Description",
		"author": "Author name",
		"favicon": "./img/website/favicon.png",
		"css": "./css/",
		"js": "./js/",
		"img": "img/",
		"fonts": "./fonts/"
	}
}